<svg width="33" height="25" viewBox="0 0 33 25" fill="none" xmlns="http://www.w3.org/2000/svg">
<rect x="1" y="0.917969" width="31" height="5" rx="2" transform="rotate(0.219855 1 0.917969)" fill="#FFFDFD"/>
<rect x="1" y="9.91797" width="22" height="5" rx="2" transform="rotate(0.219855 1 9.91797)" fill="#FFFDFD"/>
<rect x="1" y="18.918" width="31.0043" height="5" rx="2" transform="rotate(0.219855 1 18.918)" fill="#FFFDFD"/>
</svg>
